<?xml version="1.0" encoding="UTF-8" standalone="no"?>
<svg width="100px" height="100px" viewBox="0 0 100 100" version="1.1" xmlns="http://www.w3.org/2000/svg" xmlns:xlink="http://www.w3.org/1999/xlink">
    <!-- Generator: Sketch 3.8.1 (29687) - http://www.bohemiancoding.com/sketch -->
    <title>youtube</title>
    <desc>Created with Sketch.</desc>
    <defs></defs>
    <g id="Page-1" stroke="none" stroke-width="1" fill="none" fill-rule="evenodd">
        <g id="youtube">
            <circle id="Oval" fill="#D42428" cx="49.992827" cy="49.992827" r="49.992827"></circle>
            <path d="M76.1542194,40.3455696 C76.1542194,36.1546414 72.7590717,32.7578059 68.5704641,32.7578059 L32.9898734,32.7578059 C28.8021097,32.7578059 25.4075949,36.1554852 25.4075949,40.3455696 L25.4075949,60.6924051 C25.4075949,64.8833333 28.8027426,68.2801688 32.9898734,68.2801688 L68.5698312,68.2801688 C72.7592827,68.2801688 76.1535865,64.8824895 76.1535865,60.6924051 L76.1535865,40.3455696 L76.1542194,40.3455696 L76.1542194,40.3455696 Z M45.7046414,59.1025316 L45.7046414,39.9919831 L60.1972574,49.5476793 L45.7046414,59.1025316 L45.7046414,59.1025316 Z" id="Shape" fill="#FFFFFF"></path>
        </g>
    </g>
</svg>