<?xml version="1.0" encoding="UTF-8" standalone="no"?>
<svg width="79px" height="70px" viewBox="0 0 79 70" version="1.1" xmlns="http://www.w3.org/2000/svg" xmlns:xlink="http://www.w3.org/1999/xlink">
    <!-- Generator: Sketch 3.8.1 (29687) - http://www.bohemiancoding.com/sketch -->
    <title>setmana</title>
    <desc>Created with Sketch.</desc>
    <defs>
        <polygon id="path-1" points="1 21 78 21 78 5.065 1 5.065"></polygon>
        <mask id="mask-2" maskContentUnits="userSpaceOnUse" maskUnits="objectBoundingBox" x="0" y="0" width="77" height="15.935" fill="white">
            <use xlink:href="#path-1"></use>
        </mask>
        <rect id="path-3" x="1" y="20" width="77" height="50"></rect>
        <mask id="mask-4" maskContentUnits="userSpaceOnUse" maskUnits="objectBoundingBox" x="0" y="0" width="77" height="50" fill="white">
            <use xlink:href="#path-3"></use>
        </mask>
    </defs>
    <g id="Page-1" stroke="none" stroke-width="1" fill="none" fill-rule="evenodd">
        <g id="setmana">
            <polygon id="Fill-3" fill="#FFFFFF" points="0.433 67.034 78.023 67.034 78.023 20 0.433 20"></polygon>
            <use id="Fill-7" stroke="#979797" mask="url(#mask-2)" stroke-width="2" fill="#A2FFF1" xlink:href="#path-1"></use>
            <use id="Rectangle-1" stroke="#979797" mask="url(#mask-4)" stroke-width="2" xlink:href="#path-3"></use>
            <polygon id="Fill-8" stroke="#979797" points="19.578 35.755 28.617 35.755 28.617 26.715 19.578 26.715"></polygon>
            <polygon id="Fill-9" stroke="#979797" points="33.975 35.755 43.014 35.755 43.014 26.715 33.975 26.715"></polygon>
            <polygon id="Fill-10" stroke="#979797" points="48.482 35.755 57.522 35.755 57.522 26.715 48.482 26.715"></polygon>
            <polygon id="Fill-11" stroke="#979797" points="62.879 35.755 71.919 35.755 71.919 26.715 62.879 26.715"></polygon>
            <polygon id="Fill-12" fill="#AA6CFA" points="5.182 48.701 14.221 48.701 14.221 39.662 5.182 39.662"></polygon>
            <polygon id="Fill-13" fill="#AA6CFA" points="19.578 48.701 28.617 48.701 28.617 39.662 19.578 39.662"></polygon>
            <polygon id="Fill-14" fill="#AA6CFA" points="33.975 48.701 43.014 48.701 43.014 39.662 33.975 39.662"></polygon>
            <polygon id="Fill-15" fill="#AA6CFA" points="48.482 48.701 57.522 48.701 57.522 39.662 48.482 39.662"></polygon>
            <polygon id="Fill-16" fill="#AA6CFA" points="62.879 48.701 71.919 48.701 71.919 39.662 62.879 39.662"></polygon>
            <polygon id="Fill-17" stroke="#979797" points="5.182 61.647 14.221 61.647 14.221 52.607 5.182 52.607"></polygon>
            <polygon id="Fill-18" stroke="#979797" points="19.578 61.647 28.617 61.647 28.617 52.607 19.578 52.607"></polygon>
            <polygon id="Fill-19" stroke="#979797" points="33.975 61.647 43.014 61.647 43.014 52.607 33.975 52.607"></polygon>
            <polygon id="Fill-20" stroke="#979797" points="48.482 61.647 57.522 61.647 57.522 52.607 48.482 52.607"></polygon>
            <polygon id="Fill-21" fill="#333333" points="61.986 8.971 66.45 8.971 66.45 0.155 61.986 0.155"></polygon>
            <polygon id="Fill-22" fill="#333333" points="45.357 8.971 49.821 8.971 49.821 0.155 45.357 0.155"></polygon>
            <polygon id="Fill-23" fill="#333333" points="28.617 8.971 33.082 8.971 33.082 0.155 28.617 0.155"></polygon>
            <polygon id="Fill-24" fill="#333333" points="11.989 8.971 16.453 8.971 16.453 0.155 11.989 0.155"></polygon>
        </g>
    </g>
</svg>