<?xml version="1.0" encoding="UTF-8" standalone="no"?>
<svg width="86px" height="86px" viewBox="0 0 86 86" version="1.1" xmlns="http://www.w3.org/2000/svg" xmlns:xlink="http://www.w3.org/1999/xlink">
    <!-- Generator: Sketch 3.8.1 (29687) - http://www.bohemiancoding.com/sketch -->
    <title>Group 2</title>
    <desc>Created with Sketch.</desc>
    <defs></defs>
    <g id="Page-1" stroke="none" stroke-width="1" fill="none" fill-rule="evenodd">
        <g id="Group-2">
            <path d="M43.48,0.015 C66.96,0.015 86,19.052 86,42.535 C86,66.018 66.96,85.054 43.48,85.054 C20,85.054 0.96,66.018 0.96,42.535 C0.96,19.052 20,0.015 43.48,0.015" id="Fill-337" fill="#4990E2"></path>
            <path d="M68.319,68.452 L18.64,68.452 C18.05,68.452 17.58,67.979 17.58,67.388 L17.58,17.698 C17.58,17.107 18.05,16.634 18.64,16.634 L68.33,16.634 C68.92,16.634 69.4,17.107 69.4,17.698 L69.4,67.388 C69.4,67.963 68.91,68.452 68.319,68.452" id="Fill-338" fill="#2F424F"></path>
            <path d="M21.77,20.617 C21.65,20.617 21.55,20.718 21.55,20.837 L21.55,64.267 C21.55,64.385 21.65,64.486 21.77,64.486 L65.2,64.486 C65.31,64.486 65.42,64.385 65.42,64.267 L65.42,20.82 C65.42,20.701 65.31,20.6 65.2,20.6 L21.77,20.6 L21.77,20.617 L21.77,20.617 Z M65.2,65.786 L21.77,65.786 C20.92,65.786 20.23,65.093 20.23,64.251 L20.23,20.82 C20.23,19.976 20.92,19.284 21.77,19.284 L65.2,19.284 C66.04,19.284 66.73,19.976 66.73,20.82 L66.73,64.251 C66.73,65.093 66.04,65.786 65.2,65.786 L65.2,65.786 Z" id="Fill-339" fill="#FFFFFF"></path>
            <path d="M47.399,38.047 C48.21,37.135 48.63,35.786 48.63,34.014 C48.63,32.242 48.09,30.994 47.02,30.252 C45.96,29.509 44.31,29.137 42.06,29.137 L38.17,29.137 L38.17,39.414 L42.75,39.414 C45.029,39.414 46.58,38.958 47.399,38.047 L47.399,38.047 Z M52.41,26.016 C54.55,27.839 55.63,30.639 55.63,34.419 C55.63,38.199 54.53,40.966 52.319,42.704 C50.11,44.459 46.75,45.336 42.229,45.336 L38.17,45.336 L38.17,61.55 L31.33,61.55 L31.33,23.266 L42.149,23.266 C46.84,23.266 50.26,24.194 52.41,26.016 L52.41,26.016 Z" id="Fill-340" fill="#FFFFFF"></path>
        </g>
    </g>
</svg>